<?xml version="1.0" encoding="UTF-8" standalone="no"?>
<svg
   version="1.1"
   id="svg2"
   width="857.97693"
   height="610"
   viewBox="0 0 857.97691 610"
   sodipodi:docname="fig_s4c.svg"
   inkscape:version="1.1 (c68e22c387, 2021-05-23)"
   xmlns:inkscape="http://www.inkscape.org/namespaces/inkscape"
   xmlns:sodipodi="http://sodipodi.sourceforge.net/DTD/sodipodi-0.dtd"
   xmlns:xlink="http://www.w3.org/1999/xlink"
   xmlns="http://www.w3.org/2000/svg"
   xmlns:svg="http://www.w3.org/2000/svg"
   xmlns:rdf="http://www.w3.org/1999/02/22-rdf-syntax-ns#"
   xmlns:cc="http://creativecommons.org/ns#"
   xmlns:dc="http://purl.org/dc/elements/1.1/">
  <metadata
     id="metadata8">
    <rdf:RDF>
      <cc:Work
         rdf:about="">
        <dc:format>image/svg+xml</dc:format>
        <dc:type
           rdf:resource="http://purl.org/dc/dcmitype/StillImage" />
      </cc:Work>
    </rdf:RDF>
  </metadata>
  <defs
     id="defs6">
    <marker
       inkscape:isstock="true"
       style="overflow:visible"
       id="marker1182"
       refX="0"
       refY="0"
       orient="auto"
       inkscape:stockid="Arrow1Send">
      <path
         transform="matrix(-0.2,0,0,-0.2,-1.2,0)"
         style="fill:#ff0000;fill-opacity:1;fill-rule:evenodd;stroke:#ff0000;stroke-width:1pt;stroke-opacity:1"
         d="M 0,0 5,-5 -12.5,0 5,5 Z"
         id="path1180"
         inkscape:connector-curvature="0" />
    </marker>
    <marker
       inkscape:stockid="Arrow1Send"
       orient="auto"
       refY="0"
       refX="0"
       id="Arrow1Send"
       style="overflow:visible"
       inkscape:isstock="true"
       inkscape:collect="always">
      <path
         id="path836"
         d="M 0,0 5,-5 -12.5,0 5,5 Z"
         style="fill:#ff0000;fill-opacity:1;fill-rule:evenodd;stroke:#ff0000;stroke-width:1pt;stroke-opacity:1"
         transform="matrix(-0.2,0,0,-0.2,-1.2,0)"
         inkscape:connector-curvature="0" />
    </marker>
  </defs>
  <sodipodi:namedview
     pagecolor="#ffffff"
     bordercolor="#666666"
     borderopacity="1"
     objecttolerance="10"
     gridtolerance="10"
     guidetolerance="10"
     inkscape:pageopacity="0"
     inkscape:pageshadow="2"
     inkscape:window-width="1920"
     inkscape:window-height="1001"
     id="namedview4"
     showgrid="false"
     inkscape:zoom="1.2836066"
     inkscape:cx="428.86973"
     inkscape:cy="305"
     inkscape:current-layer="layer5"
     fit-margin-top="0"
     fit-margin-left="0"
     fit-margin-right="0"
     fit-margin-bottom="0"
     inkscape:document-rotation="0"
     inkscape:pagecheckerboard="0"
     inkscape:window-x="-9"
     inkscape:window-y="-9"
     inkscape:window-maximized="1" />
  <g
     inkscape:groupmode="layer"
     id="layer4"
     inkscape:label="figure"
     transform="translate(250.84337,65.658966)"
     style="display:inline"
     sodipodi:insensitive="true">
    <image
       width="844"
       height="620"
       preserveAspectRatio="none"
       xlink:href="fig_s4c.png"
       id="image979"
       x="-303.46075"
       y="-76.081177" />
  </g>
  <g
     inkscape:groupmode="layer"
     id="layer2"
     inkscape:label="x_axis"
     style="display:inline"
     transform="translate(250.84337,65.658966)"
     sodipodi:insensitive="true">
    <path
       style="opacity:1;fill:none;fill-opacity:1;stroke:#ff0000;stroke-width:3;stroke-linecap:butt;stroke-miterlimit:4;stroke-dasharray:none;stroke-dashoffset:0;stroke-opacity:1;marker-end:url(#Arrow1Send)"
       d="M -171.78409,432.23917 H 547.0489"
       id="path819"
       inkscape:connector-curvature="0"
       sodipodi:nodetypes="cc" />
    <g
       id="g1149"
       transform="translate(-230.95064,43.607497)">
      <text
         id="text1115"
         y="403.3284"
         x="110.89665"
         style="font-style:normal;font-weight:normal;font-size:24px;line-height:125%;font-family:sans-serif;letter-spacing:0px;word-spacing:0px;fill:#000000;fill-opacity:1;stroke:none;stroke-width:1px;stroke-linecap:butt;stroke-linejoin:miter;stroke-opacity:1"
         xml:space="preserve"><tspan
           style="font-size:10.6667px"
           y="403.3284"
           x="110.89665"
           id="tspan1113"
           sodipodi:role="line">0</tspan></text>
      <path
         inkscape:connector-curvature="0"
         id="path1103"
         d="m 114.2925,380.61526 v 12.46996"
         style="opacity:1;fill:none;fill-opacity:1;stroke:#ff0000;stroke-width:3;stroke-linecap:butt;stroke-miterlimit:4;stroke-dasharray:none;stroke-dashoffset:0;stroke-opacity:1" />
    </g>
    <g
       id="g999"
       transform="translate(-115.61589,43.607497)">
      <text
         id="text995"
         y="403.3284"
         x="107.34977"
         style="font-style:normal;font-weight:normal;font-size:24px;line-height:125%;font-family:sans-serif;letter-spacing:0px;word-spacing:0px;fill:#000000;fill-opacity:1;stroke:none;stroke-width:1px;stroke-linecap:butt;stroke-linejoin:miter;stroke-opacity:1"
         xml:space="preserve"><tspan
           style="font-size:10.6667px"
           y="403.3284"
           x="107.34977"
           id="tspan993"
           sodipodi:role="line">24</tspan></text>
      <path
         inkscape:connector-curvature="0"
         id="path997"
         d="m 114.2925,380.61526 v 12.46996"
         style="opacity:1;fill:none;fill-opacity:1;stroke:#ff0000;stroke-width:3;stroke-linecap:butt;stroke-miterlimit:4;stroke-dasharray:none;stroke-dashoffset:0;stroke-opacity:1" />
    </g>
    <g
       id="g1013"
       transform="translate(0.12912178,43.607497)">
      <text
         id="text1009"
         y="403.3284"
         x="107.62842"
         style="font-style:normal;font-weight:normal;font-size:24px;line-height:125%;font-family:sans-serif;letter-spacing:0px;word-spacing:0px;fill:#000000;fill-opacity:1;stroke:none;stroke-width:1px;stroke-linecap:butt;stroke-linejoin:miter;stroke-opacity:1"
         xml:space="preserve"><tspan
           style="font-size:10.6667px"
           y="403.3284"
           x="107.62842"
           id="tspan1007"
           sodipodi:role="line">48</tspan></text>
      <path
         inkscape:connector-curvature="0"
         id="path1011"
         d="m 114.2925,380.61526 v 12.46996"
         style="opacity:1;fill:none;fill-opacity:1;stroke:#ff0000;stroke-width:3;stroke-linecap:butt;stroke-miterlimit:4;stroke-dasharray:none;stroke-dashoffset:0;stroke-opacity:1" />
    </g>
    <g
       id="g1021"
       transform="translate(-127.69408,43.607497)">
      <text
         xml:space="preserve"
         style="font-style:normal;font-weight:normal;font-size:24px;line-height:125%;font-family:sans-serif;letter-spacing:0px;word-spacing:0px;fill:#000000;fill-opacity:1;stroke:none;stroke-width:1px;stroke-linecap:butt;stroke-linejoin:miter;stroke-opacity:1"
         x="350.09784"
         y="403.3284"
         id="text1017"><tspan
           sodipodi:role="line"
           id="tspan1015"
           x="350.09784"
           y="403.3284"
           style="font-size:10.6667px">72</tspan></text>
      <path
         style="opacity:1;fill:none;fill-opacity:1;stroke:#ff0000;stroke-width:3;stroke-linecap:butt;stroke-miterlimit:4;stroke-dasharray:none;stroke-dashoffset:0;stroke-opacity:1"
         d="m 356.9338,380.61526 v 12.46996"
         id="path1019"
         inkscape:connector-curvature="0" />
    </g>
    <g
       id="g1029"
       transform="translate(-12.506166,43.607497)">
      <text
         xml:space="preserve"
         style="font-style:normal;font-weight:normal;font-size:24px;line-height:125%;font-family:sans-serif;letter-spacing:0px;word-spacing:0px;fill:#000000;fill-opacity:1;stroke:none;stroke-width:1px;stroke-linecap:butt;stroke-linejoin:miter;stroke-opacity:1"
         x="350.14731"
         y="403.3284"
         id="text1025"><tspan
           sodipodi:role="line"
           id="tspan1023"
           x="350.14731"
           y="403.3284"
           style="font-size:10.6667px">96</tspan></text>
      <path
         style="opacity:1;fill:none;fill-opacity:1;stroke:#ff0000;stroke-width:3;stroke-linecap:butt;stroke-miterlimit:4;stroke-dasharray:none;stroke-dashoffset:0;stroke-opacity:1"
         d="m 356.9338,380.61526 v 12.46996"
         id="path1027"
         inkscape:connector-curvature="0" />
    </g>
    <g
       id="g1045"
       transform="translate(102.78503,43.607497)">
      <text
         xml:space="preserve"
         style="font-style:normal;font-weight:normal;font-size:24px;line-height:125%;font-family:sans-serif;letter-spacing:0px;word-spacing:0px;fill:#000000;fill-opacity:1;stroke:none;stroke-width:1px;stroke-linecap:butt;stroke-linejoin:miter;stroke-opacity:1"
         x="346.3895"
         y="403.3284"
         id="text1041"><tspan
           sodipodi:role="line"
           id="tspan1039"
           x="346.3895"
           y="403.3284"
           style="font-size:10.6667px">120</tspan></text>
      <path
         style="opacity:1;fill:none;fill-opacity:1;stroke:#ff0000;stroke-width:3;stroke-linecap:butt;stroke-miterlimit:4;stroke-dasharray:none;stroke-dashoffset:0;stroke-opacity:1"
         d="m 356.9338,380.61526 v 12.46996"
         id="path1043"
         inkscape:connector-curvature="0" />
    </g>
  </g>
  <g
     inkscape:groupmode="layer"
     id="layer1"
     inkscape:label="y_axis"
     style="display:inline"
     transform="translate(250.84337,65.658966)"
     sodipodi:insensitive="true">
    <path
       style="opacity:1;fill:none;fill-opacity:1;stroke:#ff0000;stroke-width:3;stroke-linecap:butt;stroke-miterlimit:4;stroke-dasharray:none;stroke-dashoffset:0;stroke-opacity:1;marker-end:url(#marker1182)"
       d="M -116.84199,434.11879 V -55.936868"
       id="path1172"
       inkscape:connector-curvature="0"
       sodipodi:nodetypes="cc" />
    <g
       transform="translate(-221.33668,109.88021)"
       id="g1321">
      <path
         inkscape:connector-curvature="0"
         id="path1315"
         d="M 98.259695,299.30108 H 110.72966"
         style="opacity:1;fill:none;fill-opacity:1;stroke:#ff0000;stroke-width:3;stroke-linecap:butt;stroke-miterlimit:4;stroke-dasharray:none;stroke-dashoffset:0;stroke-opacity:1" />
      <text
         id="text1319"
         y="304.14484"
         x="68.779541"
         style="font-style:normal;font-weight:normal;font-size:24px;line-height:125%;font-family:sans-serif;letter-spacing:0px;word-spacing:0px;fill:#000000;fill-opacity:1;stroke:none;stroke-width:1px;stroke-linecap:butt;stroke-linejoin:miter;stroke-opacity:1"
         xml:space="preserve"><tspan
           style="font-size:13.3333px"
           y="304.14484"
           x="68.779541"
           id="tspan1317"
           sodipodi:role="line">0</tspan></text>
    </g>
    <g
       transform="translate(-221.33668,10.565309)"
       id="g1089">
      <path
         inkscape:connector-curvature="0"
         id="path1083"
         d="M 98.259695,299.30108 H 110.72966"
         style="opacity:1;fill:none;fill-opacity:1;stroke:#ff0000;stroke-width:3;stroke-linecap:butt;stroke-miterlimit:4;stroke-dasharray:none;stroke-dashoffset:0;stroke-opacity:1" />
      <text
         id="text1087"
         y="304.14484"
         x="51.129749"
         style="font-style:normal;font-weight:normal;font-size:24px;line-height:125%;font-family:sans-serif;letter-spacing:0px;word-spacing:0px;fill:#000000;fill-opacity:1;stroke:none;stroke-width:1px;stroke-linecap:butt;stroke-linejoin:miter;stroke-opacity:1"
         xml:space="preserve"><tspan
           style="font-size:13.3333px"
           y="304.14484"
           x="51.129749"
           id="tspan1085"
           sodipodi:role="line">500</tspan></text>
    </g>
    <g
       transform="translate(-221.33668,-187.96163)"
       id="g1097">
      <path
         inkscape:connector-curvature="0"
         id="path1091"
         d="M 98.259695,299.30108 H 110.72966"
         style="opacity:1;fill:none;fill-opacity:1;stroke:#ff0000;stroke-width:3;stroke-linecap:butt;stroke-miterlimit:4;stroke-dasharray:none;stroke-dashoffset:0;stroke-opacity:1" />
      <text
         id="text1095"
         y="304.14484"
         x="46.717304"
         style="font-style:normal;font-weight:normal;font-size:24px;line-height:125%;font-family:sans-serif;letter-spacing:0px;word-spacing:0px;fill:#000000;fill-opacity:1;stroke:none;stroke-width:1px;stroke-linecap:butt;stroke-linejoin:miter;stroke-opacity:1"
         xml:space="preserve"><tspan
           style="font-size:13.3333px"
           y="304.14484"
           x="46.717304"
           id="tspan1093"
           sodipodi:role="line">1500</tspan></text>
    </g>
    <g
       transform="translate(-221.33668,-286.92003)"
       id="g1099">
      <path
         inkscape:connector-curvature="0"
         id="path1093"
         d="M 98.259695,299.30108 H 110.72966"
         style="opacity:1;fill:none;fill-opacity:1;stroke:#ff0000;stroke-width:3;stroke-linecap:butt;stroke-miterlimit:4;stroke-dasharray:none;stroke-dashoffset:0;stroke-opacity:1" />
      <text
         id="text1097"
         y="304.14484"
         x="46.717304"
         style="font-style:normal;font-weight:normal;font-size:24px;line-height:125%;font-family:sans-serif;letter-spacing:0px;word-spacing:0px;fill:#000000;fill-opacity:1;stroke:none;stroke-width:1px;stroke-linecap:butt;stroke-linejoin:miter;stroke-opacity:1"
         xml:space="preserve"><tspan
           style="font-size:13.3333px"
           y="304.14484"
           x="46.717304"
           id="tspan1095"
           sodipodi:role="line">2000</tspan></text>
    </g>
    <g
       transform="translate(-221.33668,-88.632128)"
       id="g1198">
      <path
         inkscape:connector-curvature="0"
         id="path1192"
         d="M 98.259695,299.30108 H 110.72966"
         style="opacity:1;fill:none;fill-opacity:1;stroke:#ff0000;stroke-width:3;stroke-linecap:butt;stroke-miterlimit:4;stroke-dasharray:none;stroke-dashoffset:0;stroke-opacity:1" />
      <text
         id="text1196"
         y="304.14484"
         x="46.717304"
         style="font-style:normal;font-weight:normal;font-size:24px;line-height:125%;font-family:sans-serif;letter-spacing:0px;word-spacing:0px;fill:#000000;fill-opacity:1;stroke:none;stroke-width:1px;stroke-linecap:butt;stroke-linejoin:miter;stroke-opacity:1"
         xml:space="preserve"><tspan
           style="font-size:13.3333px"
           y="304.14484"
           x="46.717304"
           id="tspan1194"
           sodipodi:role="line">1000</tspan></text>
    </g>
  </g>
  <g
     inkscape:groupmode="layer"
     id="layer5"
     inkscape:label="data"
     style="display:inline"
     transform="translate(298.7875,53.484196)">
    <circle
       style="fill:none;stroke:#ffe000;stroke-width:1.8"
       id="path5463"
       cx="-135.25679"
       cy="353.98245"
       r="7.5608535" />
    <circle
       style="display:inline;fill:none;stroke:#ffe000;stroke-width:1.8"
       id="path5463-3"
       cx="-120.38541"
       cy="227.87154"
       r="7.5608535" />
    <circle
       style="display:inline;fill:none;stroke:#ffe000;stroke-width:1.8"
       id="path5463-0"
       cx="-139.96436"
       cy="403.06561"
       r="7.5608535" />
    <circle
       style="display:inline;fill:none;stroke:#ffe000;stroke-width:1.8"
       id="path5463-4"
       cx="-144.67639"
       cy="420.6384"
       r="7.5608535" />
    <circle
       style="display:inline;fill:none;stroke:#ffe000;stroke-width:1.8"
       id="path5463-8"
       cx="-150.47696"
       cy="421.95184"
       r="7.5608535" />
    <circle
       style="display:inline;fill:none;stroke:#ffe000;stroke-width:1.8"
       id="path5463-2"
       cx="-155.49265"
       cy="421.68976"
       r="7.5608535" />
    <circle
       style="display:inline;fill:none;stroke:#ffe000;stroke-width:1.8"
       id="path5463-40"
       cx="-164.12883"
       cy="421.85895"
       r="7.5608535" />
    <circle
       style="display:inline;fill:none;stroke:#ffe000;stroke-width:1.8"
       id="path5463-25"
       cx="-126.55445"
       cy="231.9875"
       r="7.5608535" />
    <circle
       style="display:inline;fill:none;stroke:#ffe000;stroke-width:1.8"
       id="path5463-5"
       cx="-130.09792"
       cy="283.0018"
       r="7.5608535" />
    <circle
       style="display:inline;fill:none;stroke:#ffe000;stroke-width:1.8"
       id="path5463-401"
       cx="-116.33826"
       cy="207.93274"
       r="7.5608535" />
    <circle
       style="display:inline;fill:none;stroke:#ffe000;stroke-width:1.8"
       id="path5463-09"
       cx="-111.15871"
       cy="97.559456"
       r="7.5608535" />
    <circle
       style="display:inline;fill:none;stroke:#ffe000;stroke-width:1.8"
       id="path5463-09-8"
       cx="-106.5557"
       cy="52.8568"
       r="7.5608535" />
    <circle
       style="display:inline;fill:none;stroke:#ffe000;stroke-width:1.8"
       id="path5463-09-0"
       cx="-101.68661"
       cy="152.7706"
       r="7.5608535" />
    <circle
       style="display:inline;fill:none;stroke:#ffe000;stroke-width:1.8"
       id="path5463-09-9"
       cx="-91.948418"
       cy="156.66586"
       r="7.5608535" />
    <circle
       style="display:inline;fill:none;stroke:#ffe000;stroke-width:1.8"
       id="path5463-09-3"
       cx="-87.079323"
       cy="171.46791"
       r="7.5608535" />
    <circle
       style="display:inline;fill:none;stroke:#ffe000;stroke-width:1.8"
       id="path5463-04"
       cx="-96.827675"
       cy="200.77869"
       r="7.5608535" />
    <circle
       style="display:inline;fill:none;stroke:#ffe000;stroke-width:1.8"
       id="path5463-82"
       cx="-82.408089"
       cy="253.91496"
       r="7.5608535" />
    <circle
       style="display:inline;fill:none;stroke:#ffe000;stroke-width:1.8"
       id="path5463-28"
       cx="-77.525085"
       cy="330.15823"
       r="7.5608535" />
    <circle
       style="display:inline;fill:none;stroke:#ffe000;stroke-width:1.8"
       id="path5463-16"
       cx="-72.633354"
       cy="385.51422"
       r="7.5608535" />
    <circle
       style="display:inline;fill:none;stroke:#ffe000;stroke-width:1.8"
       id="path5463-32"
       cx="-67.801987"
       cy="414.58313"
       r="7.5608535" />
    <circle
       style="display:inline;fill:none;stroke:#ffe000;stroke-width:1.8"
       id="path5463-01"
       cx="-62.925968"
       cy="421.95108"
       r="7.5608535" />
    <circle
       style="display:inline;fill:none;stroke:#ffe000;stroke-width:1.8"
       id="path5463-6"
       cx="-57.714928"
       cy="422.3215"
       r="7.5608535" />
    <circle
       style="display:inline;fill:none;stroke:#ffe000;stroke-width:1.8"
       id="path5463-584"
       cx="-53.722252"
       cy="421.82492"
       r="7.5608535" />
    <circle
       style="display:inline;fill:none;stroke:#ffe000;stroke-width:1.8"
       id="path5463-408"
       cx="-49.184044"
       cy="421.90921"
       r="7.5608535" />
    <circle
       style="display:inline;fill:none;stroke:#ffe000;stroke-width:1.8"
       id="path5463-11"
       cx="-44.619534"
       cy="422.39764"
       r="7.5608535" />
    <circle
       style="display:inline;fill:none;stroke:#ffe000;stroke-width:1.8"
       id="path5463-1-6"
       cx="-39.820183"
       cy="422.01239"
       r="7.5608535" />
    <circle
       style="display:inline;fill:none;stroke:#ffe000;stroke-width:1.8"
       id="path5463-09-32"
       cx="-34.103592"
       cy="422.51834"
       r="7.5608535" />
    <circle
       style="display:inline;fill:none;stroke:#ffe000;stroke-width:1.8"
       id="path5463-09-6"
       cx="-29.039734"
       cy="418.42831"
       r="7.5608535" />
    <circle
       style="display:inline;fill:none;stroke:#ffe000;stroke-width:1.8"
       id="path5463-09-89"
       cx="-25.144459"
       cy="397.39383"
       r="7.5608535" />
    <circle
       style="display:inline;fill:none;stroke:#ffe000;stroke-width:1.8"
       id="path5463-99"
       cx="-20.248571"
       cy="346.9939"
       r="7.5608535" />
    <circle
       style="display:inline;fill:none;stroke:#ffe000;stroke-width:1.8"
       id="path5463-99-4"
       cx="-15.445367"
       cy="276.44177"
       r="7.5608535" />
    <circle
       style="display:inline;fill:none;stroke:#ffe000;stroke-width:1.8"
       id="path5463-99-6"
       cx="23.929333"
       cy="236.32858"
       r="7.5608535" />
    <circle
       style="display:inline;fill:none;stroke:#ffe000;stroke-width:1.8"
       id="path5463-99-2"
       cx="-10.308073"
       cy="192.86478"
       r="7.5608535" />
    <circle
       style="display:inline;fill:none;stroke:#ffe000;stroke-width:1.8"
       id="path5463-99-26"
       cx="-6.8675528"
       cy="94.443985"
       r="7.5608535" />
    <circle
       style="display:inline;fill:none;stroke:#ffe000;stroke-width:1.8"
       id="path5463-99-9"
       cx="12.978002"
       cy="98.618866"
       r="7.5608535" />
    <circle
       style="display:inline;fill:none;stroke:#ffe000;stroke-width:1.8"
       id="path5463-99-5"
       cx="9.6941862"
       cy="94.085762"
       r="7.5608535" />
    <circle
       style="display:inline;fill:none;stroke:#ffe000;stroke-width:1.8"
       id="path5463-99-24"
       cx="18.226793"
       cy="121.64969"
       r="7.5608535" />
    <circle
       style="display:inline;fill:none;stroke:#ffe000;stroke-width:1.8"
       id="path5463-09-4"
       cx="-0.21470025"
       cy="18.383619"
       r="7.5608535" />
    <circle
       style="display:inline;fill:none;stroke:#ffe000;stroke-width:1.8"
       id="path5463-09-1"
       cx="4.4596233"
       cy="13.125"
       r="7.5608535" />
    <circle
       style="display:inline;fill:none;stroke:#ffe000;stroke-width:1.8"
       id="path5463-99-58"
       cx="28.104261"
       cy="248.43297"
       r="7.5608535" />
    <circle
       style="display:inline;fill:none;stroke:#ffe000;stroke-width:1.8"
       id="path5463-99-1"
       cx="32.480064"
       cy="263.02002"
       r="7.5608535" />
    <circle
       style="display:inline;fill:none;stroke:#ffe000;stroke-width:1.8"
       id="path5463-99-98"
       cx="37.408535"
       cy="332.02948"
       r="7.5608535" />
    <circle
       style="display:inline;fill:none;stroke:#ffe000;stroke-width:1.8"
       id="path5463-99-29"
       cx="42.543495"
       cy="387.52753"
       r="7.5608535" />
    <circle
       style="display:inline;fill:none;stroke:#ffe000;stroke-width:1.8"
       id="path5463-09-03"
       cx="47.307644"
       cy="415.70163"
       r="7.5608535" />
    <circle
       style="display:inline;fill:none;stroke:#ffe000;stroke-width:1.8"
       id="path5463-09-7"
       cx="51.202923"
       cy="422.51834"
       r="7.5608535" />
    <circle
       style="display:inline;fill:none;stroke:#ffe000;stroke-width:1.8"
       id="path5463-09-5"
       cx="55.877254"
       cy="422.71313"
       r="7.5608535" />
    <circle
       style="display:inline;fill:none;stroke:#ffe000;stroke-width:1.8"
       id="path5463-09-61"
       cx="61.525402"
       cy="422.32361"
       r="7.5608535" />
    <circle
       style="display:inline;fill:none;stroke:#ffe000;stroke-width:1.8"
       id="path5463-09-45"
       cx="67.368317"
       cy="422.32361"
       r="7.5608535" />
    <circle
       style="display:inline;fill:none;stroke:#ffe000;stroke-width:1.8"
       id="path5463-09-47"
       cx="71.068825"
       cy="422.12885"
       r="7.5608535" />
    <circle
       style="display:inline;fill:none;stroke:#ffe000;stroke-width:1.8"
       id="path5463-09-81"
       cx="75.353622"
       cy="422.12885"
       r="7.5608535" />
    <circle
       style="display:inline;fill:none;stroke:#ffe000;stroke-width:1.8"
       id="path5463-09-19"
       cx="80.41748"
       cy="421.93405"
       r="7.5608535" />
    <circle
       style="display:inline;fill:none;stroke:#ffe000;stroke-width:1.8"
       id="path5463-09-48"
       cx="85.481331"
       cy="418.03879"
       r="7.5608535" />
    <circle
       style="display:inline;fill:none;stroke:#ffe000;stroke-width:1.8"
       id="path5463-09-74"
       cx="90.350433"
       cy="395.4462"
       r="7.5608535" />
    <circle
       style="display:inline;fill:none;stroke:#ffe000;stroke-width:1.8"
       id="path5463-99-37"
       cx="100.29688"
       cy="272.85681"
       r="7.5608535" />
    <circle
       style="display:inline;fill:none;stroke:#ffe000;stroke-width:1.8"
       id="path5463-99-91"
       cx="95.121956"
       cy="344.55545"
       r="7.5608535" />
    <circle
       style="display:inline;fill:none;stroke:#ffe000;stroke-width:1.8"
       id="path5463-1-2"
       cx="104.95564"
       cy="181.49741"
       r="7.5608535" />
    <circle
       style="display:inline;fill:none;stroke:#ffe000;stroke-width:1.8"
       id="path5463-99-82"
       cx="137.85641"
       cy="93.791435"
       r="7.5608535" />
    <circle
       style="display:inline;fill:none;stroke:#ffe000;stroke-width:1.8"
       id="path5463-1-40"
       cx="143.46083"
       cy="182.72571"
       r="7.5608535" />
    <circle
       style="display:inline;fill:none;stroke:#ffe000;stroke-width:1.8"
       id="path5463-99-00"
       cx="109.58009"
       cy="83.945831"
       r="7.5608535" />
    <circle
       style="display:inline;fill:none;stroke:#ffe000;stroke-width:1.8"
       id="path5463-99-97"
       cx="133.77057"
       cy="34.122463"
       r="7.5608535" />
    <circle
       style="display:inline;fill:none;stroke:#ffe000;stroke-width:1.8"
       id="path5463-99-74"
       cx="114.42184"
       cy="1.8319134"
       r="7.5608535" />
    <circle
       style="display:inline;fill:none;stroke:#ffe000;stroke-width:1.8"
       id="path5463-09-64"
       cx="119.17546"
       cy="-22.127234"
       r="7.5608535" />
    <circle
       style="display:inline;fill:none;stroke:#ffe000;stroke-width:1.8"
       id="path5463-99-40"
       cx="124.26997"
       cy="43.080982"
       r="7.5608535" />
    <circle
       style="display:inline;fill:none;stroke:#ffe000;stroke-width:1.8"
       id="path5463-99-65"
       cx="129.27321"
       cy="59.954128"
       r="7.5608535" />
    <circle
       style="display:inline;fill:none;stroke:#ffe000;stroke-width:1.8"
       id="path5463-99-86"
       cx="148.53487"
       cy="266.98749"
       r="7.5608535" />
    <circle
       style="display:inline;fill:none;stroke:#ffe000;stroke-width:1.8"
       id="path5463-99-228"
       cx="152.97182"
       cy="343.16675"
       r="7.5608535" />
    <circle
       style="display:inline;fill:none;stroke:#ffe000;stroke-width:1.8"
       id="path5463-99-15"
       cx="162.03188"
       cy="417.93658"
       r="7.5608535" />
    <circle
       style="display:inline;fill:none;stroke:#ffe000;stroke-width:1.8"
       id="path5463-99-28"
       cx="157.1069"
       cy="396.61505"
       r="7.5608535" />
    <circle
       style="display:inline;fill:none;stroke:#ffe000;stroke-width:1.8"
       id="path5463-99-89"
       cx="188.10217"
       cy="422.75827"
       r="7.5608535" />
    <circle
       style="display:inline;fill:none;stroke:#ffe000;stroke-width:1.8"
       id="path5463-09-38"
       cx="193.38045"
       cy="422.9079"
       r="7.5608535" />
    <circle
       style="display:inline;fill:none;stroke:#ffe000;stroke-width:1.8"
       id="path5463-09-58"
       cx="201.95006"
       cy="420.37595"
       r="7.5608535" />
    <circle
       style="display:inline;fill:none;stroke:#ffe000;stroke-width:1.8"
       id="path5463-09-589"
       cx="207.0139"
       cy="407.71631"
       r="7.5608535" />
    <circle
       style="display:inline;fill:none;stroke:#ffe000;stroke-width:1.8"
       id="path5463-09-18"
       cx="210.13013"
       cy="369.93216"
       r="7.5608535" />
    <circle
       style="display:inline;fill:none;stroke:#ffe000;stroke-width:1.8"
       id="path5463-99-02"
       cx="214.51297"
       cy="319.44849"
       r="7.5608535" />
    <circle
       style="display:inline;fill:none;stroke:#ffe000;stroke-width:1.8"
       id="path5463-1-73"
       cx="166.4913"
       cy="421.16748"
       r="7.5608535" />
    <circle
       style="display:inline;fill:none;stroke:#ffe000;stroke-width:1.8"
       id="path5463-1-68"
       cx="171.30168"
       cy="422.56021"
       r="7.5608535" />
    <circle
       style="display:inline;fill:none;stroke:#ffe000;stroke-width:1.8"
       id="path5463-1-3"
       cx="181.35515"
       cy="421.38992"
       r="7.5608535" />
    <circle
       style="display:inline;fill:none;stroke:#ffe000;stroke-width:1.8"
       id="path5463-1-76"
       cx="176.23593"
       cy="422.25778"
       r="7.5608535" />
    <circle
       style="display:inline;fill:none;stroke:#ffe000;stroke-width:1.8"
       id="path5463-99-57"
       cx="220.0899"
       cy="248.9817"
       r="7.5608535" />
    <circle
       style="display:inline;fill:none;stroke:#ffe000;stroke-width:1.8"
       id="path5463-99-93"
       cx="244.53349"
       cy="278.02798"
       r="7.5608535" />
    <circle
       style="display:inline;fill:none;stroke:#ffe000;stroke-width:1.8"
       id="path5463-99-67"
       cx="249.17076"
       cy="297.98636"
       r="7.5608535" />
    <circle
       style="display:inline;fill:none;stroke:#ffe000;stroke-width:1.8"
       id="path5463-99-01"
       cx="224.61259"
       cy="132.68413"
       r="7.5608535" />
    <circle
       style="display:inline;fill:none;stroke:#ffe000;stroke-width:1.8"
       id="path5463-99-23"
       cx="229.99742"
       cy="44.485809"
       r="7.5608535" />
    <circle
       style="display:inline;fill:none;stroke:#ffe000;stroke-width:1.8"
       id="path5463-09-65"
       cx="234.67035"
       cy="18.773148"
       r="7.5608535" />
    <circle
       style="display:inline;fill:none;stroke:#ffe000;stroke-width:1.8"
       id="path5463-99-27"
       cx="239.12881"
       cy="134.78145"
       r="7.5608535" />
    <circle
       style="display:inline;fill:none;stroke:#ffe000;stroke-width:1.8"
       id="path5463-99-12"
       cx="252.43864"
       cy="339.62982"
       r="7.5608535" />
    <circle
       style="display:inline;fill:none;stroke:#ffe000;stroke-width:1.8"
       id="path5463-99-253"
       cx="263.87167"
       cy="351.18811"
       r="7.5608535" />
    <circle
       style="display:inline;fill:none;stroke:#ffe000;stroke-width:1.8"
       id="path5463-99-239"
       cx="258.70776"
       cy="359.57202"
       r="7.5608535" />
    <circle
       style="display:inline;fill:none;stroke:#ffe000;stroke-width:1.8"
       id="path5463-99-452"
       cx="267.55249"
       cy="377.81558"
       r="7.5608535" />
    <circle
       style="display:inline;fill:none;stroke:#ffe000;stroke-width:1.8"
       id="path5463-99-292"
       cx="273.24884"
       cy="402.54684"
       r="7.5608535" />
    <circle
       style="display:inline;fill:none;stroke:#ffe000;stroke-width:1.8"
       id="path5463-99-51"
       cx="276.96674"
       cy="419.6658"
       r="7.5608535" />
    <circle
       style="display:inline;fill:none;stroke:#ffe000;stroke-width:1.8"
       id="path5463-99-263"
       cx="283.34116"
       cy="421.74048"
       r="7.5608535" />
    <circle
       style="display:inline;fill:none;stroke:#ffe000;stroke-width:1.8"
       id="path5463-99-08"
       cx="287.741"
       cy="421.84076"
       r="7.5608535" />
    <circle
       style="display:inline;fill:none;stroke:#ffe000;stroke-width:1.8"
       id="path5463-99-457"
       cx="292.61243"
       cy="422.79797"
       r="7.5608535" />
    <circle
       style="display:inline;fill:none;stroke:#ffe000;stroke-width:1.8"
       id="path5463-1-9"
       cx="296.85898"
       cy="422.543"
       r="7.5608535" />
    <circle
       style="display:inline;fill:none;stroke:#ffe000;stroke-width:1.8"
       id="path5463-1-46"
       cx="301.323"
       cy="422.60815"
       r="7.5608535" />
    <circle
       style="display:inline;fill:none;stroke:#ffe000;stroke-width:1.8"
       id="path5463-1-92"
       cx="305.66318"
       cy="422.15991"
       r="7.5608535" />
    <circle
       style="display:inline;fill:none;stroke:#ffe000;stroke-width:1.8"
       id="path5463-1-74"
       cx="310.63489"
       cy="421.50473"
       r="7.5608535" />
    <circle
       style="display:inline;fill:none;stroke:#ffe000;stroke-width:1.8"
       id="path5463-1-1"
       cx="315.51212"
       cy="419.90912"
       r="7.5608535" />
    <circle
       style="display:inline;fill:none;stroke:#ffe000;stroke-width:1.8"
       id="path5463-1-00"
       cx="320.13751"
       cy="404.54309"
       r="7.5608535" />
    <circle
       style="display:inline;fill:none;stroke:#ffe000;stroke-width:1.8"
       id="path5463-1-744"
       cx="325.70331"
       cy="357.2074"
       r="7.5608535" />
    <circle
       style="display:inline;fill:none;stroke:#ffe000;stroke-width:1.8"
       id="path5463-99-59"
       cx="330.05185"
       cy="281.29953"
       r="7.5608535" />
    <circle
       style="display:inline;fill:none;stroke:#ffe000;stroke-width:1.8"
       id="path5463-99-13"
       cx="334.71399"
       cy="204.71693"
       r="7.5608535" />
    <circle
       style="display:inline;fill:none;stroke:#ffe000;stroke-width:1.8"
       id="path5463-1-13"
       cx="338.87131"
       cy="226.90347"
       r="7.5608535" />
    <circle
       style="display:inline;fill:none;stroke:#ffe000;stroke-width:1.8"
       id="path5463-1-03"
       cx="345.68228"
       cy="251.49908"
       r="7.5608535" />
    <circle
       style="display:inline;fill:none;stroke:#ffe000;stroke-width:1.8"
       id="path5463-1-7448"
       cx="349.69403"
       cy="258.95715"
       r="7.5608535" />
    <circle
       style="display:inline;fill:none;stroke:#ffe000;stroke-width:1.8"
       id="path5463-1-15"
       cx="354.57123"
       cy="315.55273"
       r="7.5608535" />
    <circle
       style="display:inline;fill:none;stroke:#ffe000;stroke-width:1.8"
       id="path5463-1-60"
       cx="358.56509"
       cy="343.92642"
       r="7.5608535" />
    <circle
       style="display:inline;fill:none;stroke:#ffe000;stroke-width:1.8"
       id="path5463-99-214"
       cx="373.63766"
       cy="264.6636"
       r="7.5608535" />
    <circle
       style="display:inline;fill:none;stroke:#ffe000;stroke-width:1.8"
       id="path5463-1-20"
       cx="369.05536"
       cy="269.33627"
       r="7.5608535" />
    <circle
       style="display:inline;fill:none;stroke:#ffe000;stroke-width:1.8"
       id="path5463-1-31"
       cx="377.88486"
       cy="314.59274"
       r="7.5608535" />
    <circle
       style="display:inline;fill:none;stroke:#ffe000;stroke-width:1.8"
       id="path5463-1-01"
       cx="364.47787"
       cy="328.86655"
       r="7.5608535" />
    <circle
       style="display:inline;fill:none;stroke:#ffe000;stroke-width:1.8"
       id="path5463-1-64"
       cx="383.45877"
       cy="358.8905"
       r="7.5608535" />
    <circle
       style="display:inline;fill:none;stroke:#ffe000;stroke-width:1.8"
       id="path5463-1-8"
       cx="445.36832"
       cy="271.70111"
       r="7.5608535" />
    <circle
       style="display:inline;fill:none;stroke:#ffe000;stroke-width:1.8"
       id="path5463-1-16"
       cx="435.30408"
       cy="393.54797"
       r="7.5608535" />
    <circle
       style="display:inline;fill:none;stroke:#ffe000;stroke-width:1.8"
       id="path5463-99-743"
       cx="388.48065"
       cy="394.23605"
       r="7.5608535" />
    <circle
       style="display:inline;fill:none;stroke:#ffe000;stroke-width:1.8"
       id="path5463-99-50"
       cx="392.0661"
       cy="411.66653"
       r="7.5608535" />
    <circle
       style="display:inline;fill:none;stroke:#ffe000;stroke-width:1.8"
       id="path5463-99-287"
       cx="396.79648"
       cy="421.8533"
       r="7.5608535" />
    <circle
       style="display:inline;fill:none;stroke:#ffe000;stroke-width:1.8"
       id="path5463-99-85"
       cx="402.49545"
       cy="422.32861"
       r="7.5608535" />
    <circle
       style="display:inline;fill:none;stroke:#ffe000;stroke-width:1.8"
       id="path5463-99-11"
       cx="408.03116"
       cy="422.13092"
       r="7.5608535" />
    <circle
       style="display:inline;fill:none;stroke:#ffe000;stroke-width:1.8"
       id="path5463-99-76"
       cx="416.91647"
       cy="421.37393"
       r="7.5608535" />
    <circle
       style="display:inline;fill:none;stroke:#ffe000;stroke-width:1.8"
       id="path5463-99-624"
       cx="412.56314"
       cy="422.26868"
       r="7.5608535" />
    <circle
       style="display:inline;fill:none;stroke:#ffe000;stroke-width:1.8"
       id="path5463-99-68"
       cx="420.93246"
       cy="422.9581"
       r="7.5608535" />
    <circle
       style="display:inline;fill:none;stroke:#ffe000;stroke-width:1.8"
       id="path5463-99-241"
       cx="425.63397"
       cy="422.38361"
       r="7.5608535" />
    <circle
       style="display:inline;fill:none;stroke:#ffe000;stroke-width:1.8"
       id="path5463-99-519"
       cx="430.89685"
       cy="418.84897"
       r="7.5608535" />
    <circle
       style="display:inline;fill:none;stroke:#ffe000;stroke-width:1.8"
       id="path5463-99-4573"
       cx="450.67917"
       cy="179.37154"
       r="7.5608535" />
    <circle
       style="display:inline;fill:none;stroke:#ffe000;stroke-width:1.8"
       id="path5463-99-32"
       cx="440.51797"
       cy="342.89523"
       r="7.5608535" />
    <circle
       style="display:inline;fill:none;stroke:#ffe000;stroke-width:1.8"
       id="path5463-99-55"
       cx="455.54095"
       cy="82.732254"
       r="7.5608535" />
    <circle
       style="display:inline;fill:none;stroke:#ffe000;stroke-width:1.8"
       id="path5463-99-001"
       cx="469.39185"
       cy="64.564537"
       r="7.5608535" />
    <circle
       style="display:inline;fill:none;stroke:#ffe000;stroke-width:1.8"
       id="path5463-1-70"
       cx="458.87296"
       cy="1.6639515"
       r="7.5608535" />
    <circle
       style="display:inline;fill:none;stroke:#ffe000;stroke-width:1.8"
       id="path5463-09-2"
       cx="464.68631"
       cy="-27.191093"
       r="7.5608535" />
  </g>
</svg>
