<?xml version="1.0" encoding="UTF-8" standalone="no"?>
<svg
   version="1.1"
   id="svg2"
   width="1193.9589"
   height="716"
   viewBox="0 0 1193.9588 716"
   sodipodi:docname="fig_4e.svg"
   inkscape:version="1.1 (c68e22c387, 2021-05-23)"
   xmlns:inkscape="http://www.inkscape.org/namespaces/inkscape"
   xmlns:sodipodi="http://sodipodi.sourceforge.net/DTD/sodipodi-0.dtd"
   xmlns:xlink="http://www.w3.org/1999/xlink"
   xmlns="http://www.w3.org/2000/svg"
   xmlns:svg="http://www.w3.org/2000/svg"
   xmlns:rdf="http://www.w3.org/1999/02/22-rdf-syntax-ns#"
   xmlns:cc="http://creativecommons.org/ns#"
   xmlns:dc="http://purl.org/dc/elements/1.1/">
  <metadata
     id="metadata8">
    <rdf:RDF>
      <cc:Work
         rdf:about="">
        <dc:format>image/svg+xml</dc:format>
        <dc:type
           rdf:resource="http://purl.org/dc/dcmitype/StillImage" />
      </cc:Work>
    </rdf:RDF>
  </metadata>
  <defs
     id="defs6">
    <marker
       inkscape:isstock="true"
       style="overflow:visible"
       id="marker1182"
       refX="0"
       refY="0"
       orient="auto"
       inkscape:stockid="Arrow1Send">
      <path
         transform="matrix(-0.2,0,0,-0.2,-1.2,0)"
         style="fill:#ff0000;fill-opacity:1;fill-rule:evenodd;stroke:#ff0000;stroke-width:1pt;stroke-opacity:1"
         d="M 0,0 5,-5 -12.5,0 5,5 Z"
         id="path1180"
         inkscape:connector-curvature="0" />
    </marker>
    <marker
       inkscape:stockid="Arrow1Send"
       orient="auto"
       refY="0"
       refX="0"
       id="Arrow1Send"
       style="overflow:visible"
       inkscape:isstock="true"
       inkscape:collect="always">
      <path
         id="path836"
         d="M 0,0 5,-5 -12.5,0 5,5 Z"
         style="fill:#ff0000;fill-opacity:1;fill-rule:evenodd;stroke:#ff0000;stroke-width:1pt;stroke-opacity:1"
         transform="matrix(-0.2,0,0,-0.2,-1.2,0)"
         inkscape:connector-curvature="0" />
    </marker>
  </defs>
  <sodipodi:namedview
     pagecolor="#ffffff"
     bordercolor="#666666"
     borderopacity="1"
     objecttolerance="10"
     gridtolerance="10"
     guidetolerance="10"
     inkscape:pageopacity="0"
     inkscape:pageshadow="2"
     inkscape:window-width="1920"
     inkscape:window-height="1001"
     id="namedview4"
     showgrid="false"
     inkscape:zoom="1.0935754"
     inkscape:cx="596.66667"
     inkscape:cy="358"
     inkscape:current-layer="layer3"
     fit-margin-top="0"
     fit-margin-left="0"
     fit-margin-right="0"
     fit-margin-bottom="0"
     inkscape:document-rotation="0"
     inkscape:pagecheckerboard="0"
     inkscape:window-x="-9"
     inkscape:window-y="-9"
     inkscape:window-maximized="1" />
  <g
     inkscape:groupmode="layer"
     id="layer4"
     inkscape:label="figure"
     transform="translate(238.32378,177.46561)"
     style="display:inline"
     sodipodi:insensitive="true">
    <image
       width="1148"
       height="693"
       preserveAspectRatio="none"
       xlink:href="fig_4e.png"
       id="image979"
       x="-270.40341"
       y="-158.74272" />
  </g>
  <g
     inkscape:groupmode="layer"
     id="layer2"
     inkscape:label="x_axis"
     style="display:inline"
     transform="translate(238.32378,177.46561)"
     sodipodi:insensitive="true">
    <path
       style="opacity:1;fill:none;fill-opacity:1;stroke:#ff0000;stroke-width:3;stroke-linecap:butt;stroke-miterlimit:4;stroke-dasharray:none;stroke-dashoffset:0;stroke-opacity:1;marker-end:url(#Arrow1Send)"
       d="M -171.78409,432.23917 H 950.27907"
       id="path819"
       inkscape:connector-curvature="0"
       sodipodi:nodetypes="cc" />
    <g
       id="g1149"
       transform="translate(-230.95064,43.607497)">
      <text
         id="text1115"
         y="403.3284"
         x="110.89665"
         style="font-style:normal;font-weight:normal;font-size:24px;line-height:125%;font-family:sans-serif;letter-spacing:0px;word-spacing:0px;fill:#000000;fill-opacity:1;stroke:none;stroke-width:1px;stroke-linecap:butt;stroke-linejoin:miter;stroke-opacity:1"
         xml:space="preserve"><tspan
           style="font-size:10.6667px"
           y="403.3284"
           x="110.89665"
           id="tspan1113"
           sodipodi:role="line">0</tspan></text>
      <path
         inkscape:connector-curvature="0"
         id="path1103"
         d="m 114.2925,380.61526 v 12.46996"
         style="opacity:1;fill:none;fill-opacity:1;stroke:#ff0000;stroke-width:3;stroke-linecap:butt;stroke-miterlimit:4;stroke-dasharray:none;stroke-dashoffset:0;stroke-opacity:1" />
    </g>
    <g
       id="g999"
       transform="translate(-54.403043,43.607497)">
      <text
         id="text995"
         y="403.3284"
         x="110.89665"
         style="font-style:normal;font-weight:normal;font-size:24px;line-height:125%;font-family:sans-serif;letter-spacing:0px;word-spacing:0px;fill:#000000;fill-opacity:1;stroke:none;stroke-width:1px;stroke-linecap:butt;stroke-linejoin:miter;stroke-opacity:1"
         xml:space="preserve"><tspan
           style="font-size:10.6667px"
           y="403.3284"
           x="110.89665"
           id="tspan993"
           sodipodi:role="line">1</tspan></text>
      <path
         inkscape:connector-curvature="0"
         id="path997"
         d="m 114.2925,380.61526 v 12.46996"
         style="opacity:1;fill:none;fill-opacity:1;stroke:#ff0000;stroke-width:3;stroke-linecap:butt;stroke-miterlimit:4;stroke-dasharray:none;stroke-dashoffset:0;stroke-opacity:1" />
    </g>
    <g
       id="g1013"
       transform="translate(121.17684,43.607497)">
      <text
         id="text1009"
         y="403.3284"
         x="110.89665"
         style="font-style:normal;font-weight:normal;font-size:24px;line-height:125%;font-family:sans-serif;letter-spacing:0px;word-spacing:0px;fill:#000000;fill-opacity:1;stroke:none;stroke-width:1px;stroke-linecap:butt;stroke-linejoin:miter;stroke-opacity:1"
         xml:space="preserve"><tspan
           style="font-size:10.6667px"
           y="403.3284"
           x="110.89665"
           id="tspan1007"
           sodipodi:role="line">2</tspan></text>
      <path
         inkscape:connector-curvature="0"
         id="path1011"
         d="m 114.2925,380.61526 v 12.46996"
         style="opacity:1;fill:none;fill-opacity:1;stroke:#ff0000;stroke-width:3;stroke-linecap:butt;stroke-miterlimit:4;stroke-dasharray:none;stroke-dashoffset:0;stroke-opacity:1" />
    </g>
    <g
       id="g1021"
       transform="translate(54.801629,43.607497)">
      <text
         xml:space="preserve"
         style="font-style:normal;font-weight:normal;font-size:24px;line-height:125%;font-family:sans-serif;letter-spacing:0px;word-spacing:0px;fill:#000000;fill-opacity:1;stroke:none;stroke-width:1px;stroke-linecap:butt;stroke-linejoin:miter;stroke-opacity:1"
         x="353.50931"
         y="403.3284"
         id="text1017"><tspan
           sodipodi:role="line"
           id="tspan1015"
           x="353.50931"
           y="403.3284"
           style="font-size:10.6667px">3</tspan></text>
      <path
         style="opacity:1;fill:none;fill-opacity:1;stroke:#ff0000;stroke-width:3;stroke-linecap:butt;stroke-miterlimit:4;stroke-dasharray:none;stroke-dashoffset:0;stroke-opacity:1"
         d="m 356.9338,380.61526 v 12.46996"
         id="path1019"
         inkscape:connector-curvature="0" />
    </g>
    <g
       id="g1029"
       transform="translate(230.36667,43.607497)">
      <text
         xml:space="preserve"
         style="font-style:normal;font-weight:normal;font-size:24px;line-height:125%;font-family:sans-serif;letter-spacing:0px;word-spacing:0px;fill:#000000;fill-opacity:1;stroke:none;stroke-width:1px;stroke-linecap:butt;stroke-linejoin:miter;stroke-opacity:1"
         x="353.60046"
         y="403.3284"
         id="text1025"><tspan
           sodipodi:role="line"
           id="tspan1023"
           x="353.60046"
           y="403.3284"
           style="font-size:10.6667px">4</tspan></text>
      <path
         style="opacity:1;fill:none;fill-opacity:1;stroke:#ff0000;stroke-width:3;stroke-linecap:butt;stroke-miterlimit:4;stroke-dasharray:none;stroke-dashoffset:0;stroke-opacity:1"
         d="m 356.9338,380.61526 v 12.46996"
         id="path1027"
         inkscape:connector-curvature="0" />
    </g>
    <g
       id="g1045"
       transform="translate(406.26454,43.607497)">
      <text
         xml:space="preserve"
         style="font-style:normal;font-weight:normal;font-size:24px;line-height:125%;font-family:sans-serif;letter-spacing:0px;word-spacing:0px;fill:#000000;fill-opacity:1;stroke:none;stroke-width:1px;stroke-linecap:butt;stroke-linejoin:miter;stroke-opacity:1"
         x="353.43378"
         y="403.3284"
         id="text1041"><tspan
           sodipodi:role="line"
           id="tspan1039"
           x="353.43378"
           y="403.3284"
           style="font-size:10.6667px">5</tspan></text>
      <path
         style="opacity:1;fill:none;fill-opacity:1;stroke:#ff0000;stroke-width:3;stroke-linecap:butt;stroke-miterlimit:4;stroke-dasharray:none;stroke-dashoffset:0;stroke-opacity:1"
         d="m 356.9338,380.61526 v 12.46996"
         id="path1043"
         inkscape:connector-curvature="0" />
    </g>
  </g>
  <g
     inkscape:groupmode="layer"
     id="layer1"
     inkscape:label="y_axis"
     style="display:inline"
     transform="translate(238.32378,177.46561)"
     sodipodi:insensitive="true">
    <path
       style="opacity:1;fill:none;fill-opacity:1;stroke:#ff0000;stroke-width:3;stroke-linecap:butt;stroke-miterlimit:4;stroke-dasharray:none;stroke-dashoffset:0;stroke-opacity:1;marker-end:url(#marker1182)"
       d="m -116.84199,434.11879 v -597.429"
       id="path1172"
       inkscape:connector-curvature="0"
       sodipodi:nodetypes="cc" />
    <g
       transform="translate(-221.33668,132.51726)"
       id="g1321">
      <path
         inkscape:connector-curvature="0"
         id="path1315"
         d="M 98.259695,299.30108 H 110.72966"
         style="opacity:1;fill:none;fill-opacity:1;stroke:#ff0000;stroke-width:3;stroke-linecap:butt;stroke-miterlimit:4;stroke-dasharray:none;stroke-dashoffset:0;stroke-opacity:1" />
      <text
         id="text1319"
         y="304.14484"
         x="68.779541"
         style="font-style:normal;font-weight:normal;font-size:24px;line-height:125%;font-family:sans-serif;letter-spacing:0px;word-spacing:0px;fill:#000000;fill-opacity:1;stroke:none;stroke-width:1px;stroke-linecap:butt;stroke-linejoin:miter;stroke-opacity:1"
         xml:space="preserve"><tspan
           style="font-size:13.3333px"
           y="304.14484"
           x="68.779541"
           id="tspan1317"
           sodipodi:role="line">0</tspan></text>
    </g>
    <g
       transform="translate(-221.33668,-103.26728)"
       id="g1089">
      <path
         inkscape:connector-curvature="0"
         id="path1083"
         d="M 98.259695,299.30108 H 110.72966"
         style="opacity:1;fill:none;fill-opacity:1;stroke:#ff0000;stroke-width:3;stroke-linecap:butt;stroke-miterlimit:4;stroke-dasharray:none;stroke-dashoffset:0;stroke-opacity:1" />
      <text
         id="text1087"
         y="304.14484"
         x="51.129749"
         style="font-style:normal;font-weight:normal;font-size:24px;line-height:125%;font-family:sans-serif;letter-spacing:0px;word-spacing:0px;fill:#000000;fill-opacity:1;stroke:none;stroke-width:1px;stroke-linecap:butt;stroke-linejoin:miter;stroke-opacity:1"
         xml:space="preserve"><tspan
           style="font-size:13.3333px"
           y="304.14484"
           x="51.129749"
           id="tspan1085"
           sodipodi:role="line">500</tspan></text>
    </g>
    <g
       transform="translate(-221.33668,-340.55135)"
       id="g1126">
      <path
         inkscape:connector-curvature="0"
         id="path1120"
         d="M 98.259695,299.30108 H 110.72966"
         style="opacity:1;fill:none;fill-opacity:1;stroke:#ff0000;stroke-width:3;stroke-linecap:butt;stroke-miterlimit:4;stroke-dasharray:none;stroke-dashoffset:0;stroke-opacity:1" />
      <text
         id="text1124"
         y="304.14484"
         x="46.717304"
         style="font-style:normal;font-weight:normal;font-size:24px;line-height:125%;font-family:sans-serif;letter-spacing:0px;word-spacing:0px;fill:#000000;fill-opacity:1;stroke:none;stroke-width:1px;stroke-linecap:butt;stroke-linejoin:miter;stroke-opacity:1"
         xml:space="preserve"><tspan
           style="font-size:13.3333px"
           y="304.14484"
           x="46.717304"
           id="tspan1122"
           sodipodi:role="line">1000</tspan></text>
    </g>
  </g>
  <g
     inkscape:groupmode="layer"
     id="layer5"
     inkscape:label="obs"
     style="display:inline"
     transform="translate(286.26791,165.29084)"
     sodipodi:insensitive="true">
    <circle
       style="display:inline;fill:none;stroke:#ffe000;stroke-width:1.94372"
       id="path5341-966-8-68"
       cx="-83.721298"
       cy="94.407753"
       r="8.7972555" />
    <circle
       style="display:inline;fill:none;stroke:#ffe000;stroke-width:1.94372"
       id="path5341-966-8-68-7"
       cx="-75.034187"
       cy="348.16254"
       r="8.7972555" />
    <circle
       style="display:inline;fill:none;stroke:#ffe000;stroke-width:1.94372"
       id="path5341-966-8-68-1"
       cx="-61.77494"
       cy="351.82028"
       r="8.7972555" />
    <circle
       style="display:inline;fill:none;stroke:#ffe000;stroke-width:1.94372"
       id="path5341-966-8-68-73"
       cx="-68.976082"
       cy="346.56229"
       r="8.7972555" />
    <circle
       style="display:inline;fill:none;stroke:#ffe000;stroke-width:1.94372"
       id="path5341-966-8-68-5"
       cx="92.963478"
       cy="373.32767"
       r="8.7972555" />
    <circle
       style="display:inline;fill:none;stroke:#ffe000;stroke-width:1.94372"
       id="path5341-966-8-68-53"
       cx="99.752792"
       cy="347.46362"
       r="8.7972555" />
    <circle
       style="display:inline;fill:none;stroke:#ffe000;stroke-width:1.94372"
       id="path5341-966-8-68-11"
       cx="106.5421"
       cy="351.01993"
       r="8.7972555" />
    <circle
       style="display:inline;fill:none;stroke:#ffe000;stroke-width:1.94372"
       id="path5341-966-8-68-13"
       cx="121.09061"
       cy="362.98206"
       r="8.7972555" />
    <circle
       style="display:inline;fill:none;stroke:#ffe000;stroke-width:1.94372"
       id="path5341-966-8-68-8"
       cx="130.14304"
       cy="351.34323"
       r="8.7972555" />
    <circle
       style="display:inline;fill:none;stroke:#ffe000;stroke-width:1.94372"
       id="path5341-966-8-68-4"
       cx="135.96243"
       cy="334.20831"
       r="8.7972555" />
    <circle
       style="display:inline;fill:none;stroke:#ffe000;stroke-width:1.94372"
       id="path5341-966-8-68-52"
       cx="143.72165"
       cy="369.44806"
       r="8.7972555" />
    <circle
       style="display:inline;fill:none;stroke:#ffe000;stroke-width:1.94372"
       id="path5341-966-8-68-55"
       cx="261.40302"
       cy="370.09467"
       r="8.7972555" />
    <circle
       style="display:inline;fill:none;stroke:#ffe000;stroke-width:1.94372"
       id="path5341-966-8-68-76"
       cx="267.54572"
       cy="363.95193"
       r="8.7972555" />
    <circle
       style="display:inline;fill:none;stroke:#ffe000;stroke-width:1.94372"
       id="path5341-966-8-68-56"
       cx="276.92142"
       cy="351.01993"
       r="8.7972555" />
    <circle
       style="display:inline;fill:none;stroke:#ffe000;stroke-width:1.94372"
       id="path5341-966-8-68-9"
       cx="284.03403"
       cy="351.01993"
       r="8.7972555" />
    <circle
       style="display:inline;fill:none;stroke:#ffe000;stroke-width:1.94372"
       id="path5341-966-8-68-536"
       cx="445.03763"
       cy="261.789"
       r="8.7972555" />
    <circle
       style="display:inline;fill:none;stroke:#ffe000;stroke-width:1.94372"
       id="path5341-966-8-68-47"
       cx="452.15024"
       cy="240.77449"
       r="8.7972555" />
    <circle
       style="display:inline;fill:none;stroke:#ffe000;stroke-width:1.94372"
       id="path5341-966-8-68-6"
       cx="457.64636"
       cy="149.92706"
       r="8.7972555" />
    <circle
       style="display:inline;fill:none;stroke:#ffe000;stroke-width:1.94372"
       id="path5341-966-8-68-2"
       cx="634.4917"
       cy="171.9115"
       r="8.7972555" />
    <circle
       style="display:inline;fill:none;stroke:#ffe000;stroke-width:1.94372"
       id="path5341-966-8-68-3"
       cx="626.08588"
       cy="113.71742"
       r="8.7972555" />
    <circle
       style="display:inline;fill:none;stroke:#ffe000;stroke-width:1.94372"
       id="path5341-966-8-68-36"
       cx="797.43512"
       cy="221.69977"
       r="8.7972555" />
    <circle
       style="display:inline;fill:none;stroke:#ffe000;stroke-width:1.94372"
       id="path5341-966-8-68-530"
       cx="803.25452"
       cy="97.552399"
       r="8.7972555" />
    <circle
       style="display:inline;fill:none;stroke:#ffe000;stroke-width:1.94372"
       id="path5341-966-8-68-18"
       cx="613.53284"
       cy="-31.783819"
       r="8.7972555" />
    <circle
       style="display:inline;fill:none;stroke:#ffe000;stroke-width:1.94372"
       id="path5341-966-8-68-40"
       cx="788.18933"
       cy="-4.3508687"
       r="8.7972555" />
  </g>
  <g
     inkscape:groupmode="layer"
     id="layer3"
     inkscape:label="sim"
     transform="translate(-29.769184,40.764207)">
    <path
       style="fill:none;stroke:#ac0000;stroke-width:1px;stroke-linecap:butt;stroke-linejoin:miter;stroke-opacity:1"
       d="m 159.84709,544.70067 36.57726,-3.65773 13.94509,7.77267 8.00127,-0.22861 5.25798,-3.20051 h 8.68711 l 6.17241,3.65773 7.77267,-0.22861 14.63091,-12.11622 6.17241,1.14304 8.45849,-3.20051 9.37293,-12.57343 5.7152,-11.88762 8.45849,-8.45849 7.31545,-17.83142 64.01022,0.22861 15.08812,29.71903 10.97318,12.11622 7.08685,3.65773 h 5.9438 l 11.65901,-7.54406 16.91698,-10.51597 8.4585,-17.83142 13.03065,-9.60153 6.62963,-17.60281 7.08684,-32.69093 72.2401,-3.88634 10.28736,26.28991 8.91571,18.06003 8.22988,7.77267 13.48787,1.37165 15.77395,-21.48915 12.11622,-12.34482 24.46104,-55.09451 4.11495,-14.17369 7.54406,-27.43295 73.38314,-5.94381 7.08685,13.03065 6.62963,9.60153 8.00127,4.80077 7.31546,9.14432 9.37292,-3.65773 9.37293,-14.63091 9.37292,-26.97573 23.54662,-24.68966 5.9438,-0.91443 8.6871,-5.02937 8.00128,-11.88761 36.80587,-0.45722 13.71648,-3.20051 21.48914,-0.68582 15.08813,16.45977 h 6.17241 l 6.17241,-13.94509 17.1456,-13.03065 5.02937,-7.54406 25.37548,-7.54406 12.11622,-10.05875 8.22989,-1.60026 8.4585,-12.34482 29.4904,-6.40102 13.4879,-4.34355 29.4904,-2.7433 14.8595,6.62963 8.4585,-4.34355 5.9438,-10.51596 14.6309,-10.97319"
       id="path4736"
       sodipodi:nodetypes="ccccccccccccccccccccccccccccccccccccccccccccccccccccccccccccccccccc" />
  </g>
</svg>
