<?xml version="1.0" encoding="UTF-8" standalone="no"?>
<svg
   version="1.1"
   id="svg2"
   width="1025.7158"
   height="615.60126"
   viewBox="0 0 1025.7158 615.60126"
   sodipodi:docname="fig_4b.svg"
   inkscape:version="1.1 (c68e22c387, 2021-05-23)"
   xmlns:inkscape="http://www.inkscape.org/namespaces/inkscape"
   xmlns:sodipodi="http://sodipodi.sourceforge.net/DTD/sodipodi-0.dtd"
   xmlns:xlink="http://www.w3.org/1999/xlink"
   xmlns="http://www.w3.org/2000/svg"
   xmlns:svg="http://www.w3.org/2000/svg"
   xmlns:rdf="http://www.w3.org/1999/02/22-rdf-syntax-ns#"
   xmlns:cc="http://creativecommons.org/ns#"
   xmlns:dc="http://purl.org/dc/elements/1.1/">
  <metadata
     id="metadata8">
    <rdf:RDF>
      <cc:Work
         rdf:about="">
        <dc:format>image/svg+xml</dc:format>
        <dc:type
           rdf:resource="http://purl.org/dc/dcmitype/StillImage" />
      </cc:Work>
    </rdf:RDF>
  </metadata>
  <defs
     id="defs6">
    <marker
       inkscape:isstock="true"
       style="overflow:visible"
       id="marker1182"
       refX="0"
       refY="0"
       orient="auto"
       inkscape:stockid="Arrow1Send">
      <path
         transform="matrix(-0.2,0,0,-0.2,-1.2,0)"
         style="fill:#ff0000;fill-opacity:1;fill-rule:evenodd;stroke:#ff0000;stroke-width:1pt;stroke-opacity:1"
         d="M 0,0 5,-5 -12.5,0 5,5 Z"
         id="path1180"
         inkscape:connector-curvature="0" />
    </marker>
    <marker
       inkscape:stockid="Arrow1Send"
       orient="auto"
       refY="0"
       refX="0"
       id="Arrow1Send"
       style="overflow:visible"
       inkscape:isstock="true"
       inkscape:collect="always">
      <path
         id="path836"
         d="M 0,0 5,-5 -12.5,0 5,5 Z"
         style="fill:#ff0000;fill-opacity:1;fill-rule:evenodd;stroke:#ff0000;stroke-width:1pt;stroke-opacity:1"
         transform="matrix(-0.2,0,0,-0.2,-1.2,0)"
         inkscape:connector-curvature="0" />
    </marker>
  </defs>
  <sodipodi:namedview
     pagecolor="#ffffff"
     bordercolor="#666666"
     borderopacity="1"
     objecttolerance="10"
     gridtolerance="10"
     guidetolerance="10"
     inkscape:pageopacity="0"
     inkscape:pageshadow="2"
     inkscape:window-width="1920"
     inkscape:window-height="1001"
     id="namedview4"
     showgrid="false"
     inkscape:zoom="1.2719272"
     inkscape:cx="513.00105"
     inkscape:cy="307.80063"
     inkscape:current-layer="layer7"
     fit-margin-top="0"
     fit-margin-left="0"
     fit-margin-right="0"
     fit-margin-bottom="0"
     inkscape:document-rotation="0"
     inkscape:pagecheckerboard="0"
     inkscape:window-x="-9"
     inkscape:window-y="-9"
     inkscape:window-maximized="1" />
  <g
     inkscape:groupmode="layer"
     id="layer4"
     inkscape:label="figure"
     transform="translate(268.09296,136.7014)"
     style="display:inline"
     sodipodi:insensitive="true">
    <image
       width="998"
       height="596"
       preserveAspectRatio="none"
       xlink:href="fig_5b.png"
       id="image979"
       x="-260.25586"
       y="-116.5802" />
  </g>
  <g
     inkscape:groupmode="layer"
     id="layer2"
     inkscape:label="x_axis"
     style="display:inline"
     transform="translate(268.09296,136.7014)"
     sodipodi:insensitive="true">
    <path
       style="opacity:1;fill:none;fill-opacity:1;stroke:#ff0000;stroke-width:3;stroke-linecap:butt;stroke-miterlimit:4;stroke-dasharray:none;stroke-dashoffset:0;stroke-opacity:1;marker-end:url(#Arrow1Send)"
       d="M -171.78409,432.23917 H 752.26682"
       id="path819"
       inkscape:connector-curvature="0"
       sodipodi:nodetypes="cc" />
    <g
       id="g1149"
       transform="translate(-230.95064,43.607497)">
      <text
         id="text1115"
         y="403.3284"
         x="110.89665"
         style="font-style:normal;font-weight:normal;font-size:24px;line-height:125%;font-family:sans-serif;letter-spacing:0px;word-spacing:0px;fill:#000000;fill-opacity:1;stroke:none;stroke-width:1px;stroke-linecap:butt;stroke-linejoin:miter;stroke-opacity:1"
         xml:space="preserve"><tspan
           style="font-size:10.6667px"
           y="403.3284"
           x="110.89665"
           id="tspan1113"
           sodipodi:role="line">0</tspan></text>
      <path
         inkscape:connector-curvature="0"
         id="path1103"
         d="m 114.2925,380.61526 v 12.46996"
         style="opacity:1;fill:none;fill-opacity:1;stroke:#ff0000;stroke-width:3;stroke-linecap:butt;stroke-miterlimit:4;stroke-dasharray:none;stroke-dashoffset:0;stroke-opacity:1" />
    </g>
    <g
       id="g999"
       transform="translate(-79.113567,43.607497)">
      <text
         id="text995"
         y="403.3284"
         x="110.89665"
         style="font-style:normal;font-weight:normal;font-size:24px;line-height:125%;font-family:sans-serif;letter-spacing:0px;word-spacing:0px;fill:#000000;fill-opacity:1;stroke:none;stroke-width:1px;stroke-linecap:butt;stroke-linejoin:miter;stroke-opacity:1"
         xml:space="preserve"><tspan
           style="font-size:10.6667px"
           y="403.3284"
           x="110.89665"
           id="tspan993"
           sodipodi:role="line">1</tspan></text>
      <path
         inkscape:connector-curvature="0"
         id="path997"
         d="m 114.2925,380.61526 v 12.46996"
         style="opacity:1;fill:none;fill-opacity:1;stroke:#ff0000;stroke-width:3;stroke-linecap:butt;stroke-miterlimit:4;stroke-dasharray:none;stroke-dashoffset:0;stroke-opacity:1" />
    </g>
    <g
       id="g1013"
       transform="translate(71.735642,43.607497)">
      <text
         id="text1009"
         y="403.3284"
         x="110.89665"
         style="font-style:normal;font-weight:normal;font-size:24px;line-height:125%;font-family:sans-serif;letter-spacing:0px;word-spacing:0px;fill:#000000;fill-opacity:1;stroke:none;stroke-width:1px;stroke-linecap:butt;stroke-linejoin:miter;stroke-opacity:1"
         xml:space="preserve"><tspan
           style="font-size:10.6667px"
           y="403.3284"
           x="110.89665"
           id="tspan1007"
           sodipodi:role="line">2</tspan></text>
      <path
         inkscape:connector-curvature="0"
         id="path1011"
         d="m 114.2925,380.61526 v 12.46996"
         style="opacity:1;fill:none;fill-opacity:1;stroke:#ff0000;stroke-width:3;stroke-linecap:butt;stroke-miterlimit:4;stroke-dasharray:none;stroke-dashoffset:0;stroke-opacity:1" />
    </g>
    <g
       id="g1021"
       transform="translate(-18.117538,43.607497)">
      <text
         xml:space="preserve"
         style="font-style:normal;font-weight:normal;font-size:24px;line-height:125%;font-family:sans-serif;letter-spacing:0px;word-spacing:0px;fill:#000000;fill-opacity:1;stroke:none;stroke-width:1px;stroke-linecap:butt;stroke-linejoin:miter;stroke-opacity:1"
         x="353.50931"
         y="403.3284"
         id="text1017"><tspan
           sodipodi:role="line"
           id="tspan1015"
           x="353.50931"
           y="403.3284"
           style="font-size:10.6667px">3</tspan></text>
      <path
         style="opacity:1;fill:none;fill-opacity:1;stroke:#ff0000;stroke-width:3;stroke-linecap:butt;stroke-miterlimit:4;stroke-dasharray:none;stroke-dashoffset:0;stroke-opacity:1"
         d="m 356.9338,380.61526 v 12.46996"
         id="path1019"
         inkscape:connector-curvature="0" />
    </g>
    <g
       id="g1029"
       transform="translate(133.34316,43.607497)">
      <text
         xml:space="preserve"
         style="font-style:normal;font-weight:normal;font-size:24px;line-height:125%;font-family:sans-serif;letter-spacing:0px;word-spacing:0px;fill:#000000;fill-opacity:1;stroke:none;stroke-width:1px;stroke-linecap:butt;stroke-linejoin:miter;stroke-opacity:1"
         x="353.60046"
         y="403.3284"
         id="text1025"><tspan
           sodipodi:role="line"
           id="tspan1023"
           x="353.60046"
           y="403.3284"
           style="font-size:10.6667px">4</tspan></text>
      <path
         style="opacity:1;fill:none;fill-opacity:1;stroke:#ff0000;stroke-width:3;stroke-linecap:butt;stroke-miterlimit:4;stroke-dasharray:none;stroke-dashoffset:0;stroke-opacity:1"
         d="m 356.9338,380.61526 v 12.46996"
         id="path1027"
         inkscape:connector-curvature="0" />
    </g>
    <g
       id="g1045"
       transform="translate(285.27811,43.607497)">
      <text
         xml:space="preserve"
         style="font-style:normal;font-weight:normal;font-size:24px;line-height:125%;font-family:sans-serif;letter-spacing:0px;word-spacing:0px;fill:#000000;fill-opacity:1;stroke:none;stroke-width:1px;stroke-linecap:butt;stroke-linejoin:miter;stroke-opacity:1"
         x="353.43378"
         y="403.3284"
         id="text1041"><tspan
           sodipodi:role="line"
           id="tspan1039"
           x="353.43378"
           y="403.3284"
           style="font-size:10.6667px">5</tspan></text>
      <path
         style="opacity:1;fill:none;fill-opacity:1;stroke:#ff0000;stroke-width:3;stroke-linecap:butt;stroke-miterlimit:4;stroke-dasharray:none;stroke-dashoffset:0;stroke-opacity:1"
         d="m 356.9338,380.61526 v 12.46996"
         id="path1043"
         inkscape:connector-curvature="0" />
    </g>
  </g>
  <g
     inkscape:groupmode="layer"
     id="layer1"
     inkscape:label="y_axis"
     style="display:inline"
     transform="translate(268.09296,136.7014)"
     sodipodi:insensitive="true">
    <path
       style="opacity:1;fill:none;fill-opacity:1;stroke:#ff0000;stroke-width:3;stroke-linecap:butt;stroke-miterlimit:4;stroke-dasharray:none;stroke-dashoffset:0;stroke-opacity:1;marker-end:url(#marker1182)"
       d="M -116.84199,434.11879 V -131.34538"
       id="path1172"
       inkscape:connector-curvature="0"
       sodipodi:nodetypes="cc" />
    <g
       transform="translate(-221.33668,108.57829)"
       id="g1321">
      <path
         inkscape:connector-curvature="0"
         id="path1315"
         d="M 98.259695,299.30108 H 110.72966"
         style="opacity:1;fill:none;fill-opacity:1;stroke:#ff0000;stroke-width:3;stroke-linecap:butt;stroke-miterlimit:4;stroke-dasharray:none;stroke-dashoffset:0;stroke-opacity:1" />
      <text
         id="text1319"
         y="304.14484"
         x="68.779541"
         style="font-style:normal;font-weight:normal;font-size:24px;line-height:125%;font-family:sans-serif;letter-spacing:0px;word-spacing:0px;fill:#000000;fill-opacity:1;stroke:none;stroke-width:1px;stroke-linecap:butt;stroke-linejoin:miter;stroke-opacity:1"
         xml:space="preserve"><tspan
           style="font-size:13.3333px"
           y="304.14484"
           x="68.779541"
           id="tspan1317"
           sodipodi:role="line">0</tspan></text>
    </g>
    <g
       transform="translate(-221.33668,-12.846216)"
       id="g1089">
      <path
         inkscape:connector-curvature="0"
         id="path1083"
         d="M 98.259695,299.30108 H 110.72966"
         style="opacity:1;fill:none;fill-opacity:1;stroke:#ff0000;stroke-width:3;stroke-linecap:butt;stroke-miterlimit:4;stroke-dasharray:none;stroke-dashoffset:0;stroke-opacity:1" />
      <text
         id="text1087"
         y="304.14484"
         x="51.129749"
         style="font-style:normal;font-weight:normal;font-size:24px;line-height:125%;font-family:sans-serif;letter-spacing:0px;word-spacing:0px;fill:#000000;fill-opacity:1;stroke:none;stroke-width:1px;stroke-linecap:butt;stroke-linejoin:miter;stroke-opacity:1"
         xml:space="preserve"><tspan
           style="font-size:13.3333px"
           y="304.14484"
           x="51.129749"
           id="tspan1085"
           sodipodi:role="line">2.5</tspan></text>
    </g>
    <g
       transform="translate(-221.33668,-134.44747)"
       id="g1097">
      <path
         inkscape:connector-curvature="0"
         id="path1091"
         d="M 98.259695,299.30108 H 110.72966"
         style="opacity:1;fill:none;fill-opacity:1;stroke:#ff0000;stroke-width:3;stroke-linecap:butt;stroke-miterlimit:4;stroke-dasharray:none;stroke-dashoffset:0;stroke-opacity:1" />
      <text
         id="text1095"
         y="304.14484"
         x="46.717304"
         style="font-style:normal;font-weight:normal;font-size:24px;line-height:125%;font-family:sans-serif;letter-spacing:0px;word-spacing:0px;fill:#000000;fill-opacity:1;stroke:none;stroke-width:1px;stroke-linecap:butt;stroke-linejoin:miter;stroke-opacity:1"
         xml:space="preserve"><tspan
           style="font-size:13.3333px"
           y="304.14484"
           x="46.717304"
           id="tspan1093"
           sodipodi:role="line">5</tspan></text>
    </g>
    <g
       transform="translate(-221.33668,-256.33868)"
       id="g1105">
      <path
         inkscape:connector-curvature="0"
         id="path1099"
         d="M 98.259695,299.30108 H 110.72966"
         style="opacity:1;fill:none;fill-opacity:1;stroke:#ff0000;stroke-width:3;stroke-linecap:butt;stroke-miterlimit:4;stroke-dasharray:none;stroke-dashoffset:0;stroke-opacity:1" />
      <text
         id="text1103"
         y="304.14484"
         x="45.246487"
         style="font-style:normal;font-weight:normal;font-size:24px;line-height:125%;font-family:sans-serif;letter-spacing:0px;word-spacing:0px;fill:#000000;fill-opacity:1;stroke:none;stroke-width:1px;stroke-linecap:butt;stroke-linejoin:miter;stroke-opacity:1"
         xml:space="preserve"><tspan
           style="font-size:13.3333px"
           y="304.14484"
           x="45.246487"
           id="tspan1101"
           sodipodi:role="line">7.5</tspan></text>
    </g>
    <g
       transform="translate(-221.33668,-377.6919)"
       id="g989">
      <path
         inkscape:connector-curvature="0"
         id="path983"
         d="M 98.259695,299.30108 H 110.72966"
         style="opacity:1;fill:none;fill-opacity:1;stroke:#ff0000;stroke-width:3;stroke-linecap:butt;stroke-miterlimit:4;stroke-dasharray:none;stroke-dashoffset:0;stroke-opacity:1" />
      <text
         id="text987"
         y="304.14484"
         x="45.246487"
         style="font-style:normal;font-weight:normal;font-size:24px;line-height:125%;font-family:sans-serif;letter-spacing:0px;word-spacing:0px;fill:#000000;fill-opacity:1;stroke:none;stroke-width:1px;stroke-linecap:butt;stroke-linejoin:miter;stroke-opacity:1"
         xml:space="preserve"><tspan
           style="font-size:13.3333px"
           y="304.14484"
           x="45.246487"
           id="tspan985"
           sodipodi:role="line">10</tspan></text>
    </g>
  </g>
  <g
     inkscape:groupmode="layer"
     id="layer5"
     inkscape:label="leaf16"
     style="display:inline"
     transform="translate(316.03709,124.52663)"
     sodipodi:insensitive="true">
    <path
       style="fill:none;stroke:#8ab200;stroke-width:1px;stroke-linecap:butt;stroke-linejoin:miter;stroke-opacity:1"
       d="m -164.79023,420.11931 38.32767,-0.29483 17.59141,-295.90922 8.25519,-12.97244 5.50346,-23.19315 5.89656,-119.110592 6.28967,-49.138032 12.97244,192.227984 7.07588,-58.57254 6.68277,14.54486 19.26211,309.37304 5.11035,42.45526 57.39322,0.78621 9.0414,-154.48997 8.6483,-144.26926 6.68277,-97.88296 7.07587,-42.45526 6.68278,9.0414 5.89656,62.89668 12.97244,41.66905 5.11036,97.88296 7.07587,33.02076 5.50346,16.90348 6.28967,73.5105 h 7.07588 l 5.50346,103.38641 57.78632,0.39311 24.37246,-297.57992 6.28967,1.17931 12.18623,69.97256 14.54486,46.3863 5.50346,10.22071 7.46898,26.33799 12.97244,79.80016 h 5.50346 l 5.89657,64.4691 56.2139,-0.78621 7.46898,-47.95872 18.4759,-86.08983 5.89657,-3.93104 7.86208,23.19315 8.25519,14.93796 5.11036,28.3035 5.11035,4.71726 11.40003,25.15867 7.46898,-4.32415 5.11035,12.18623 9.4345,0.78621 4.32415,33.02076 h 56.21391 l 5.50346,-40.88284 6.68277,-27.1242 6.68277,-11.79312 10.61382,12.18623 9.4345,1.17931 6.68277,14.54486 5.50346,3.53794 6.68277,-1.57242 4.71725,-11.00692 9.82761,4.71725 11.40002,17.68969 4.71726,-0.78621 7.07587,38.52422 56.21391,1.17931 6.68277,-44.02767 7.07588,-14.93797 4.32415,-4.32414 8.25518,2.75173 5.11036,1.17931 7.86209,14.54486"
       id="path6220" />
  </g>
  <g
     inkscape:groupmode="layer"
     id="layer3"
     inkscape:label="leaf11"
     sodipodi:insensitive="true">
    <path
       style="fill:none;stroke:#ac0000;stroke-width:1px;stroke-linecap:butt;stroke-linejoin:miter;stroke-opacity:1"
       d="m 151.24686,544.64594 38.32767,-0.29483 19.17845,-273.3336 7.5051,-3.05763 5.28137,-19.73563 5.55933,-114.52228 6.94917,-22.79326 12.23053,145.37657 6.6712,-50.58994 7.78307,59.76284 6.6712,93.39681 7.5051,135.64774 9.30532,49.55355 57.39322,0.78621 14.7457,-200.44177 10.56273,-147.32234 1.6678,-25.8509 4.44747,-34.18991 5.8373,6.39324 6.39323,72.27134 9.45087,22.79326 3.89153,27.79667 5.28137,90.89511 11.6746,24.73903 6.6712,70.0476 6.94917,1.11187 5.98585,90.97059 57.78632,0.39311 24.34327,-260.64541 7.78306,-15.28817 10.0068,57.81707 8.89494,35.85771 11.6746,34.74583 13.3424,52.25774 5.8373,39.74923 6.39323,-0.8339 6.46253,57.12611 56.2139,-0.78621 25.16104,-122.49597 8.339,-7.22713 16.95597,66.98997 8.339,0.55593 10.78445,20.50815 7.46898,-4.32415 5.11035,12.18623 9.4345,0.78621 4.32415,33.02076 h 56.21391 l 6.17573,-44.38733 13.62037,-30.29837 9.72884,11.95257 11.6746,5.28137 4.44746,11.6746 4.72544,3.89153 11.39663,-13.3424 8.61697,1.38983 10.56273,24.46107 8.06104,3.61357 6.51452,24.97735 56.21391,1.17931 11.2107,-52.5635 9.1729,-5.8373 13.06444,5.0034 5.86239,8.58352"
       id="path13942"
       sodipodi:nodetypes="cccccccccccccccccccccccccccccccccccccccccccccccccccccccccccccccc" />
  </g>
  <g
     inkscape:groupmode="layer"
     id="layer6"
     inkscape:label="leaf6"
     sodipodi:insensitive="true">
    <path
       style="fill:none;stroke:#00d7dc;stroke-width:1px;stroke-linecap:butt;stroke-linejoin:miter;stroke-opacity:1"
       d="m 151.24686,544.64594 38.32767,-0.29483 18.34455,-205.78769 5.0034,5.0034 3.3356,-13.89834 h 4.1695 l 6.6712,-101.45783 7.78307,-7.22714 5.0034,81.16627 7.78306,31.41024 4.72544,-48.64417 5.55933,26.40683 6.11527,77.27474 10.8407,105.90531 9.30532,49.55355 57.39322,0.78621 17.2474,-190.71294 12.78646,-132.5901 7.78307,13.89833 10.28477,57.26114 9.1729,25.57293 5.28137,87.83747 8.06103,7.22714 0.55593,8.89493 2.77967,2.22373 8.339,49.20011 7.5051,8.06103 3.76212,62.34002 57.78632,0.39311 17.67206,-148.62483 8.33901,-67.82388 8.89493,-5.0034 7.22713,3.3356 0.55594,44.47467 3.3356,14.73224 13.89833,13.89833 21.12547,99.23411 8.06103,1.6678 5.62863,44.89557 56.2139,-0.78621 25.16104,-100.25863 3.3356,-3.61357 2.5017,-5.8373 4.44747,-5.8373 15.56613,63.09844 8.33901,8.06103 5.0034,8.89493 17.5119,13.89834 h 9.72883 l 4.32236,21.59406 h 56.21391 l 8.67743,-42.44156 10.0068,-23.07124 6.67121,8.339 11.39663,4.72544 11.95257,18.06783 8.61696,-1.6678 6.94917,-11.6746 5.28137,0.27797 3.05763,6.6712 8.339,11.39663 8.06104,3.61357 6.51452,24.97735 56.21391,1.17931 9.26494,-39.2211 3.89153,-10.56273 17.23393,-2.22373 6.6712,11.39663"
       id="path16143" />
  </g>
  <g
     inkscape:groupmode="layer"
     id="layer7"
     inkscape:label="leaf1">
    <path
       style="fill:none;stroke:#ffe000;stroke-width:1px;stroke-linecap:butt;stroke-linejoin:miter;stroke-opacity:1"
       d="m 151.24686,544.64594 38.32767,-0.29483 18.06658,-189.66562 6.39324,-5.28137 6.39323,-19.73564 6.94917,-112.02057 6.39323,-33.91193 6.11527,118.4138 7.78306,31.41024 4.72544,-48.64417 5.55933,26.40683 9.45087,99.51208 10.0068,106.7392 6.80362,26.48232 57.39322,0.78621 18.63723,-200.71974 5.8373,-64.76623 3.89153,-45.30857 10.8407,-10.8407 4.1695,57.26113 13.89834,37.80347 5.0034,78.94254 4.44747,15.28817 8.61696,19.73563 6.94917,41.41704 7.5051,8.06103 3.76212,62.34002 57.78632,0.39311 20.7297,-171.14014 3.3356,-32.5221 7.5051,-48.64417 10.56273,58.92894 8.89494,32.5221 6.11526,2.22373 7.22714,36.69161 17.5119,66.43403 6.39323,-0.8339 6.46253,57.12611 56.2139,-0.78621 25.16104,-100.25863 10.28477,-15.28817 15.56613,63.09844 8.33901,8.06103 5.0034,8.89493 17.80444,1.68543 -0.29254,12.21291 h 9.72883 l 4.32236,21.59406 h 56.21391 l 8.67743,-42.44156 10.0068,-23.07124 6.67121,8.339 11.39663,4.72544 11.95257,18.06783 8.61696,-1.6678 6.94917,-11.6746 5.28137,0.27797 3.05763,6.6712 8.339,11.39663 8.06104,3.61357 6.51452,24.97735 56.21391,1.17931 13.15647,-49.78383 17.23393,-2.22373 6.6712,11.39663"
       id="path20045" />
  </g>
</svg>
